           d&b     d&b
           MMM     MMM
           MMMMM&MMMMM
          dMMMMMMMMMMMb
         dMMMMMI-IMMMMMb
        dMMMMMMIhIMMMMMMb
     dMMMMMMIIII=IIIIMMMMMMb
   dMMMMMMMMI.......IMMMMMMMMb
 dMMMIIIIIIII.......IIIIIIIIMMMb
 MMMMIRRR...I.......I.....fIMMMM
 MMMMIRRR...=.......=.....tIMMMM
 MMMMIRRR...IIII=IIII.....qIMMMM
 VMMMIIIIIIIIMI...IMIIIIIIIIMMMP
   VMMMMMMEEMMI...IMMEEMMMMMMP
     VMMMMEEMMII=IIMMEEMMMMP
        VMEEMP     VMEEMP